; Engine configuration file.
; It's best edited using the editor UI and not directly,
; since the parameters that go here are not all obvious.
;
; Format:
;   [section] ; section goes between []
;   param=value ; assign values to parameters

config_version=5

[application]

config/name="Isometric Tactics"
run/main_scene="res://demo.tscn"
config/features=PackedStringArray("4.2", "C#", "Mobile")
config/icon="res://icon.svg"
run/main_scene.gdnetscout="res://test/test_scene_runner.tscn"

[autoload]

SceneScout="*res://addons/GD_NET_ScOUT/SceneScout.cs"

[display]

window/size/viewport_width=1280
window/size/viewport_height=800
window/stretch/mode="viewport"

[dotnet]

project/assembly_name="IsometricTactics"

[editor]

naming/default_signal_callback_name="On{node_name}{signal_name}"
naming/default_signal_callback_to_self_name="On{signal_name}"

[editor_plugins]

enabled=PackedStringArray("res://addons/GD_NET_ScOUT/plugin.cfg")

[filesystem]

import/blender/enabled=false

[rendering]

textures/canvas_textures/default_texture_filter=0
renderer/rendering_method="mobile"
viewport/transparent_background=true
